%!PS-Adobe-3.0
%%Title: GeneratesWorkFor.fig
%%Creator: fig2dev Version 3.2.6a
%%CreationDate: 2019-01-30 17:44:50
%%Orientation: Landscape
%%Pages: 1
%%BoundingBox: 0 0 595 842
%%DocumentPaperSizes: a4
%Magnification: 0.5700
%%EndComments
%%BeginSetup
[{
%%BeginFeature: *PageRegion A4
<</PageSize [595 842]>> setpagedevice
%%EndFeature
} stopped cleartomark
%%EndSetup
%%BeginProlog
/$F2psDict 200 dict def
$F2psDict begin
$F2psDict /mtrx matrix put
/col-1 {0 setgray} bind def
/col0 {0.000 0.000 0.000 srgb} bind def
/col7 {1.000 1.000 1.000 srgb} bind def

end

/cp {closepath} bind def
/ef {eofill} bind def
/gr {grestore} bind def
/gs {gsave} bind def
/sa {save} bind def
/rs {restore} bind def
/l {lineto} bind def
/m {moveto} bind def
/rm {rmoveto} bind def
/n {newpath} bind def
/s {stroke} bind def
/sh {show} bind def
/slc {setlinecap} bind def
/slj {setlinejoin} bind def
/slw {setlinewidth} bind def
/srgb {setrgbcolor} bind def
/rot {rotate} bind def
/sc {scale} bind def
/sd {setdash} bind def
/ff {findfont} bind def
/sf {setfont} bind def
/scf {scalefont} bind def
/sw {stringwidth} bind def
/tr {translate} bind def
/tnt {dup dup currentrgbcolor
  4 -2 roll dup 1 exch sub 3 -1 roll mul add
  4 -2 roll dup 1 exch sub 3 -1 roll mul add
  4 -2 roll dup 1 exch sub 3 -1 roll mul add srgb}
  bind def
/shd {dup dup currentrgbcolor 4 -2 roll mul 4 -2 roll mul
  4 -2 roll mul srgb} bind def
/$F2psBegin {$F2psDict begin /$F2psEnteredState save def} def
/$F2psEnd {$F2psEnteredState restore end} def

/pageheader {
save
newpath 0 842 moveto 0 0 lineto 595 0 lineto 595 842 lineto closepath clip newpath
66.7 9.5 translate
$F2psBegin
10 setmiterlimit
0 slj 0 slc
 0.03591 0.03591 sc
} bind def
/pagefooter {
$F2psEnd
restore
} bind def
%%EndProlog
%%Page: 1 1
%%BeginPageSetup
pageheader
 90 rotate
1 -1 scale
%%EndPageSetup
%
% Fig objects follow
%
% 
% here starts figure with depth 50
% Polyline
0 slj
0 slc
7.500 slw
n 5850 9000 m 9405 9000 l 9405 9900 l 5850 9900 l
 cp gs col0 s gr 
% Polyline
n 11340 7380 m 14895 7380 l 14895 8280 l 11340 8280 l
 cp gs col0 s gr 
% Polyline
gs  clippath
5542 952 m 5528 952 l 5505 809 l 5565 809 l cp
eoclip
n 5535 315 m
 5535 945 l gs col0 s gr gr

% arrowhead
n 5505 809 m 5535 929 l 5565 809 l 5505 809 l  cp gs 0.00 setgray ef gr  col0 s
% Polyline
gs  clippath
17093 308 m 17107 308 l 17130 451 l 17070 451 l cp
eoclip
n 17100 315 m
 17100 945 l gs col0 s gr gr

% arrowhead
n 17130 451 m 17100 331 l 17070 451 l 17130 451 l  cp gs 0.00 setgray ef gr  col0 s
% Polyline
75.000 slw
n 16980 7605 m 16875 7605 16875 10290 105 arcto 4 {pop} repeat
  16875 10395 21765 10395 105 arcto 4 {pop} repeat
  21870 10395 21870 7710 105 arcto 4 {pop} repeat
  21870 7605 16980 7605 105 arcto 4 {pop} repeat
 cp gs col0 s gr 
% Polyline
7.500 slw
gs  clippath
5274 5847 m 5268 5859 l 5129 5821 l 5153 5766 l cp
3276 4953 m 3282 4941 l 3421 4979 l 3397 5034 l cp
eoclip
n 3285 4950 m
 5265 5850 l gs col0 s gr gr

% arrowhead
n 3421 4979 m 3300 4957 l 3397 5034 l 3421 4979 l  cp gs 0.00 setgray ef gr  col0 s
% arrowhead
n 5129 5821 m 5250 5843 l 5153 5766 l 5129 5821 l  cp gs 0.00 setgray ef gr  col0 s
% Polyline
gs  clippath
6747 5859 m 6741 5847 l 6861 5766 l 6886 5820 l cp
8598 4986 m 8604 4998 l 8484 5079 l 8459 5025 l cp
eoclip
n 8595 4995 m
 6750 5850 l gs col0 s gr gr

% arrowhead
n 8484 5079 m 8580 5002 l 8459 5025 l 8484 5079 l  cp gs 0.00 setgray ef gr  col0 s
% arrowhead
n 6861 5766 m 6765 5843 l 6886 5820 l 6861 5766 l  cp gs 0.00 setgray ef gr  col0 s
% Polyline
gs  clippath
12113 7375 m 12110 7388 l 11966 7374 l 11981 7316 l cp
8092 6305 m 8095 6292 l 8239 6306 l 8224 6364 l cp
eoclip
n 8100 6300 m
 12105 7380 l gs col0 s gr gr

% arrowhead
n 8239 6306 m 8116 6304 l 8224 6364 l 8239 6306 l  cp gs 0.00 setgray ef gr  col0 s
% arrowhead
n 11966 7374 m 12089 7376 l 11981 7316 l 11966 7374 l  cp gs 0.00 setgray ef gr  col0 s
% Polyline
gs  clippath
8591 9009 m 8586 8996 l 8709 8919 l 8732 8974 l cp
11344 7821 m 11349 7834 l 11226 7911 l 11203 7856 l cp
eoclip
n 11340 7830 m
 8595 9000 l gs col0 s gr gr

% arrowhead
n 11226 7911 m 11325 7836 l 11203 7856 l 11226 7911 l  cp gs 0.00 setgray ef gr  col0 s
% arrowhead
n 8709 8919 m 8610 8994 l 8732 8974 l 8709 8919 l  cp gs 0.00 setgray ef gr  col0 s
% Polyline
gs  clippath
5857 9488 m 5857 9502 l 5714 9525 l 5714 9465 l cp
4538 9502 m 4538 9488 l 4681 9465 l 4681 9525 l cp
eoclip
n 4545 9495 m
 5850 9495 l gs col0 s gr gr

% arrowhead
n 4681 9465 m 4561 9495 l 4681 9525 l 4681 9465 l  cp gs 0.00 setgray ef gr  col0 s
% arrowhead
n 5714 9525 m 5834 9495 l 5714 9465 l 5714 9525 l  cp gs 0.00 setgray ef gr  col0 s
% Polyline
gs  clippath
7567 10852 m 7553 10852 l 7530 10709 l 7590 10709 l cp
7553 9893 m 7567 9893 l 7590 10036 l 7530 10036 l cp
eoclip
n 7560 9900 m
 7560 10845 l gs col0 s gr gr

% arrowhead
n 7590 10036 m 7560 9916 l 7530 10036 l 7590 10036 l  cp gs 0.00 setgray ef gr  col0 s
% arrowhead
n 7530 10709 m 7560 10829 l 7590 10709 l 7530 10709 l  cp gs 0.00 setgray ef gr  col0 s
% Polyline
gs  clippath
17239 6292 m 17243 6304 l 17114 6370 l 17096 6313 l cp
13856 7388 m 13852 7376 l 13981 7310 l 13999 7367 l cp
eoclip
n 13860 7380 m
 17235 6300 l gs col0 s gr gr

% arrowhead
n 13981 7310 m 13875 7375 l 13999 7367 l 13981 7310 l  cp gs 0.00 setgray ef gr  col0 s
% arrowhead
n 17114 6370 m 17220 6305 l 17096 6313 l 17114 6370 l  cp gs 0.00 setgray ef gr  col0 s
% Polyline
n 945 945 m 22050 945 l 22050 1800 l 945 1800 l
 cp gs col0 s gr 
% Polyline
gs  clippath
15307 12337 m 15293 12337 l 15270 12194 l 15330 12194 l cp
15293 11693 m 15307 11693 l 15330 11836 l 15270 11836 l cp
eoclip
n 15300 11700 m
 15300 12330 l gs col0 s gr gr

% arrowhead
n 15330 11836 m 15300 11716 l 15270 11836 l 15330 11836 l  cp gs 0.00 setgray ef gr  col0 s
% arrowhead
n 15270 12194 m 15300 12314 l 15330 12194 l 15270 12194 l  cp gs 0.00 setgray ef gr  col0 s
% Polyline
n 4500 5850 m 8100 5850 l 8100 6750 l 4500 6750 l
 cp gs col7 0.80 shd ef gr gs col0 s gr 
% Polyline
n 900 4050 m 4500 4050 l 4500 4950 l 900 4950 l
 cp gs col7 0.80 shd ef gr gs col0 s gr 
% Polyline
n 6795 4050 m 10395 4050 l 10395 4950 l 6795 4950 l
 cp gs col7 0.80 shd ef gr gs col0 s gr 
% Polyline
n 945 9000 m 4545 9000 l 4545 9900 l 945 9900 l
 cp gs col7 0.80 shd ef gr gs col0 s gr 
% Polyline
n 17996 5850 m 18004 5850 l gs col0 s gr
% Polyline
n 20021 5850 m 20029 5850 l gs col0 s gr
% Polyline
n 945 10845 m 22050 10845 l 22050 11700 l 945 11700 l
 cp gs col0 s gr 
% Polyline
gs  clippath
18862 5857 m 18848 5857 l 18825 5713 l 18855 5833 l 18885 5713 l cp
18848 1793 m 18862 1793 l 18885 1937 l 18855 1817 l 18825 1937 l cp
eoclip
n 18855 1800 m
 18855 5850 l gs col0 s gr gr

% arrowhead
n 18825 1937 m 18855 1817 l 18885 1937 l  col0 s
% arrowhead
n 18885 5713 m 18855 5833 l 18825 5713 l  col0 s
% Polyline
gs  clippath
8647 4057 m 8633 4057 l 8610 3913 l 8640 4033 l 8670 3913 l cp
8633 1793 m 8647 1793 l 8670 1937 l 8640 1817 l 8610 1937 l cp
eoclip
n 8640 1800 m
 8640 4050 l gs col0 s gr gr

% arrowhead
n 8610 1937 m 8640 1817 l 8670 1937 l  col0 s
% arrowhead
n 8670 3913 m 8640 4033 l 8610 3913 l  col0 s
% Polyline
gs  clippath
13057 10852 m 13043 10852 l 13020 10708 l 13050 10828 l 13080 10708 l cp
13043 8273 m 13057 8273 l 13080 8417 l 13050 8297 l 13020 8417 l cp
eoclip
n 13050 8280 m
 13050 10845 l gs col0 s gr gr

% arrowhead
n 13020 8417 m 13050 8297 l 13080 8417 l  col0 s
% arrowhead
n 13080 10708 m 13050 10828 l 13020 10708 l  col0 s
% Polyline
n 17280 5850 m 20835 5850 l 20835 6750 l 17280 6750 l
 cp gs col0 s gr 
/Times-Roman ff 396.88 scf sf
3780 720 m
gs 1 -1 sc (Stdin) col0 sh gr
/Times-Roman ff 396.88 scf sf
17505 765 m
gs 1 -1 sc (Stdout) col0 sh gr
/Times-Roman ff 396.88 scf sf
8820 11475 m
gs 1 -1 sc (Network Interface \(NIC\)) col0 sh gr
/Times-Roman ff 396.88 scf sf
1620 4680 m
gs 1 -1 sc (INCD) col0 sh gr
/Times-Roman ff 396.88 scf sf
7965 4635 m
gs 1 -1 sc (INC) col0 sh gr
/Times-Roman ff 396.88 scf sf
5355 6480 m
gs 1 -1 sc (UDP) col0 sh gr
/Times-Roman ff 396.88 scf sf
17955 6345 m
gs 1 -1 sc (ICMP) col0 sh gr
/Times-Roman ff 396.88 scf sf
12555 8010 m
gs 1 -1 sc (IP) col0 sh gr
/Times-Roman ff 396.88 scf sf
1710 9540 m
gs 1 -1 sc (ARP) col0 sh gr
/Times-Roman ff 396.88 scf sf
6570 9495 m
gs 1 -1 sc (ETHERNET) col0 sh gr
/Times-Roman ff 396.88 scf sf
18315 8325 m
gs 1 -1 sc (CSCI 460 inet) col0 sh gr
/Times-Roman ff 396.88 scf sf
17640 9405 m
gs 1 -1 sc ("Generates Work For") col0 sh gr
/Times-Roman ff 396.88 scf sf
17685 9945 m
gs 1 -1 sc (Relationship Diagram) col0 sh gr
/Times-Roman ff 396.88 scf sf
11340 12420 m
gs 1 -1 sc (eth[0..n]   p2p[0..n]) col0 sh gr
/Times-Roman ff 396.88 scf sf
17595 8820 m
gs 1 -1 sc (Base System \(handlers\)) col0 sh gr
/Times-Roman ff 396.88 scf sf
9000 1440 m
gs 1 -1 sc (User Interface \(Streams\)) col0 sh gr
% here ends figure;
pagefooter
showpage
%%Trailer
%EOF
